{
    "project": {
        "uid": 1593,
        "name": "Code Lab Sample",
        "config": {
            "layout": [
                {
                    "id": "47f0e800-eca0-11e4-8060-cd1accb59bb8",
                    "ui": [
                        {
                            "width": 800,
                            "play": "false",
                            "layer": 0,
                            "repeat": 0,
                            "type": "video",
                            "fullScreen": "true",
                            "id": "layout_371d1b00-eca0-11e4-c46b-f9b107f5ca3e",
                            "height": 450,
                            "event": [],
                            "rotation": 0,
                            "name": "video_player1",
                            "alpha": 1,
                            "sourceRef": "b3257950-eca0-11e4-ba88-231f6119bcb6",
                            "eventTypes": [
                                {
                                    "value": "mouse_click",
                                    "label": "Mouse Click"
                                },
                                {
                                    "value": "mouse_down",
                                    "label": "Mouse Down"
                                },
                                {
                                    "value": "mouse_up",
                                    "label": "Mouse Up"
                                }
                            ],
                            "y": "2",
                            "x": "4"
                        }
                    ],
                    "index": 1,
                    "backgroundColor": "0xffffff",
                    "event": [],
                    "name": "scene1",
                    "type": "scene",
                    "showEffect": "fadeIn",
                    "hideEffect": "fadeOut"
                },
                {
                    "id": "2ad081e0-eca0-11e4-8a7f-6f4033011596",
                    "ui": [
                        {
                            "width": 800,
                            "play": "true",
                            "layer": 0,
                            "repeat": 999,
                            "type": "video",
                            "fullScreen": "true",
                            "id": "layout_4000faa0-eca0-11e4-8276-3dd5301cfa5f",
                            "height": 450,
                            "event": [],
                            "rotation": 0,
                            "name": "video_player2",
                            "alpha": 1,
                            "sourceRef": "b326d8e0-eca0-11e4-ba88-231f6119bcb6",
                            "eventTypes": [
                                {
                                    "value": "mouse_click",
                                    "label": "Mouse Click"
                                },
                                {
                                    "value": "mouse_down",
                                    "label": "Mouse Down"
                                },
                                {
                                    "value": "mouse_up",
                                    "label": "Mouse Up"
                                }
                            ],
                            "y": "0",
                            "x": "0"
                        }
                    ],
                    "index": 2,
                    "backgroundColor": "0xffffff",
                    "event": [],
                    "name": "complete",
                    "type": "scene",
                    "showEffect": "fadeIn",
                    "hideEffect": "fadeOut"
                }
            ],
            "library": [
                {
                    "id": "3c0095e0-eca0-11e4-a616-b7c8383732fb",
                    "source": {
                        "zh_TW": {
                            "file": "butterfly.xml"
                        },
                        "en_US": {
                            "file": "butterfly.xml"
                        }
                    },
                    "name": "butterfly.xml",
                    "type": "txt"
                },
                {
                    "id": "fe5af5d0-eca0-11e4-a616-b7c8383732fb",
                    "source": {
                        "zh_TW": {
                            "file": "airplane.xml"
                        },
                        "en_US": {
                            "file": "airplane.xml"
                        }
                    },
                    "name": "airplane.xml",
                    "type": "txt"
                },
                {
                    "id": "024a3160-eca0-11e4-a616-b7c8383732fb",
                    "source": {
                        "zh_TW": {
                            "file": "spring.xml"
                        },
                        "en_US": {
                            "file": "spring.xml"
                        }
                    },
                    "name": "spring.xml",
                    "type": "txt"
                },
                {
                    "id": "a5a90200-eca0-11e4-a616-b7c8383732fb",
                    "source": {
                        "zh_TW": {
                            "file": "flower.xml"
                        },
                        "en_US": {
                            "file": "flower.xml"
                        }
                    },
                    "name": "flower.xml",
                    "type": "txt"
                },
                {
                    "id": "b3257950-eca0-11e4-ba88-231f6119bcb6",
                    "source": {
                        "en_US": {
                            "file": "pleased.mp4"
                        },
                        "zh_TW": {
                            "file": "pleased.mp4"
                        }
                    },
                    "name": "pleased.mp4",
                    "type": "video"
                },
                {
                    "id": "b326d8e0-eca0-11e4-ba88-231f6119bcb6",
                    "source": {
                        "en_US": {
                            "file": "talk.mp4"
                        },
                        "zh_TW": {
                            "file": "talk.mp4"
                        }
                    },
                    "name": "talk.mp4",
                    "type": "video"
                },
                {
                    "id": "0aabf8a0-eca0-11e4-8276-3dd5301cfa5f",
                    "source": {
                        "en_US": {
                            "file": "idle.mp4"
                        },
                        "zh_TW": {
                            "file": "idle.mp4"
                        }
                    },
                    "name": "idle.mp4",
                    "type": "video"
                },
                {
                    "id": "1f8cdc70-eca0-11e4-8276-3dd5301cfa5f",
                    "source": {
                        "en_US": {
                            "file": "triumph.mp4"
                        },
                        "zh_TW": {
                            "file": "triumph.mp4"
                        }
                    },
                    "name": "triumph.mp4",
                    "type": "video"
                },
                {
                    "id": "0f8b9cc0-eca0-11e4-8276-3dd5301cfa5f",
                    "source": {
                        "en_US": {
                            "file": "yes.mp4"
                        },
                        "zh_TW": {
                            "file": "yes.mp4"
                        }
                    },
                    "name": "yes.mp4",
                    "type": "video"
                },
                {
                    "id": "bce70230-eca0-11e4-8276-3dd5301cfa5f",
                    "source": {
                        "zh_TW": {
                            "file": "crying.mp4"
                        },
                        "en_US": {
                            "file": "crying.mp4"
                        }
                    },
                    "name": "crying.mp4",
                    "type": "video"
                },
                {
                    "id": "f29c8d00-eca0-11e4-8276-3dd5301cfa5f",
                    "source": {
                        "zh_TW": {
                            "file": "happy.mp4"
                        },
                        "en_US": {
                            "file": "happy.mp4"
                        }
                    },
                    "name": "happy.mp4",
                    "type": "video"
                },
                {
                    "id": "0f8b4ea0-eca0-11e4-8276-3dd5301cfa5f",
                    "source": {
                        "en_US": {
                            "file": "no.mp4"
                        },
                        "zh_TW": {
                            "file": "no.mp4"
                        }
                    },
                    "name": "no.mp4",
                    "type": "video"
                },
                {
                    "id": "f7cb30f0-eca0-11e4-8276-3dd5301cfa5f",
                    "source": {
                        "zh_TW": {
                            "file": "sighing.mp4"
                        },
                        "en_US": {
                            "file": "sighing.mp4"
                        }
                    },
                    "name": "sighing.mp4",
                    "type": "video"
                },
                {
                    "id": "74ee7610-eca0-11e4-ba88-231f6119bcb6",
                    "source": {
                        "en_US": {
                            "file": "ks.owl"
                        },
                        "zh_TW": {
                            "file": "ks.owl"
                        }
                    },
                    "name": "ks.owl",
                    "type": "ontology"
                },
                {
                    "id": "ee532050-eca0-11e4-8276-3dd5301cfa5f.bnf",
                    "source": {
                        "en_US": {
                            "crossApp": 0,
                            "intention": "110_Patten0094bb7666",
                            "file": "ee532050-eca0-11e4-8276-3dd5301cfa5f.bnf",
                            "ontology": "ks.owl",
                            "act": "",
                            "sentenceText": [
                                "<蝴蝶>"
                            ],
                            "iri": "http://www.asus.com/irp_sample/kidsong",
                            "function": "1"
                        },
                        "zh_TW": {
                            "crossApp": 0,
                            "intention": "110_Patten0094bb7666",
                            "file": "ee532050-eca0-11e4-8276-3dd5301cfa5f.bnf",
                            "ontology": "ks.owl",
                            "act": "",
                            "sentenceText": [
                                "<蝴蝶>"
                            ],
                            "iri": "http://www.asus.com/irp_sample/kidsong",
                            "function": "1"
                        }
                    },
                    "name": "<蝴蝶>",
                    "type": "bnf"
                },
                {
                    "id": "c69b0400-eca0-11e4-8276-3dd5301cfa5f.bnf",
                    "source": {
                        "en_US": {
                            "crossApp": 0,
                            "intention": "110_Patten0094c0fc4e",
                            "file": "c69b0400-eca0-11e4-8276-3dd5301cfa5f.bnf",
                            "ontology": "ks.owl",
                            "act": "",
                            "sentenceText": [
                                "不知道"
                            ],
                            "iri": "http://www.asus.com/irp_sample/kidsong",
                            "function": "1"
                        },
                        "zh_TW": {
                            "crossApp": 0,
                            "intention": "110_Patten0094c0fc4e",
                            "file": "c69b0400-eca0-11e4-8276-3dd5301cfa5f.bnf",
                            "ontology": "ks.owl",
                            "act": "",
                            "sentenceText": [
                                "不知道"
                            ],
                            "iri": "http://www.asus.com/irp_sample/kidsong",
                            "function": "1"
                        }
                    },
                    "name": "不知道",
                    "type": "bnf"
                },
                {
                    "id": "f1b73d70-eca0-11e4-8276-3dd5301cfa5f.bnf",
                    "source": {
                        "en_US": {
                            "crossApp": 0,
                            "intention": "110_Patten0094c21a71",
                            "file": "f1b73d70-eca0-11e4-8276-3dd5301cfa5f.bnf",
                            "ontology": "ks.owl",
                            "act": "",
                            "sentenceText": [
                                "我不想玩了"
                            ],
                            "iri": "http://www.asus.com/irp_sample/kidsong",
                            "function": "1"
                        },
                        "zh_TW": {
                            "crossApp": 0,
                            "intention": "110_Patten0094c21a71",
                            "file": "f1b73d70-eca0-11e4-8276-3dd5301cfa5f.bnf",
                            "ontology": "ks.owl",
                            "act": "",
                            "sentenceText": [
                                "我不想玩了"
                            ],
                            "iri": "http://www.asus.com/irp_sample/kidsong",
                            "function": "1"
                        }
                    },
                    "name": "我不想玩了",
                    "type": "bnf"
                },
                {
                    "id": "9a702ed0-eca0-11e4-8276-3dd5301cfa5f.bnf",
                    "source": {
                        "en_US": {
                            "crossApp": 0,
                            "intention": "110_Patten0094ccf9d2",
                            "file": "9a702ed0-eca0-11e4-8276-3dd5301cfa5f.bnf",
                            "ontology": "ks.owl",
                            "act": "",
                            "sentenceText": [
                                "再唱一次"
                            ],
                            "iri": "http://www.asus.com/irp_sample/kidsong",
                            "function": "1"
                        },
                        "zh_TW": {
                            "crossApp": 0,
                            "intention": "110_Patten0094ccf9d2",
                            "file": "9a702ed0-eca0-11e4-8276-3dd5301cfa5f.bnf",
                            "ontology": "ks.owl",
                            "act": "",
                            "sentenceText": [
                                "再唱一次"
                            ],
                            "iri": "http://www.asus.com/irp_sample/kidsong",
                            "function": "1"
                        }
                    },
                    "name": "再唱一次",
                    "type": "bnf"
                },
                {
                    "id": "cb0ecf10-eca0-11e4-8d52-15f3e859670c.bnf",
                    "source": {
                        "zh_TW": {
                            "crossApp": 0,
                            "intention": "110_Patten0098846f15_crossIntent",
                            "file": "cb0ecf10-eca0-11e4-8d52-15f3e859670c.bnf",
                            "ontology": "ks.owl",
                            "act": "",
                            "iri": "http://www.asus.com/irp_sample/kidsong",
                            "sentenceText": [
                                "我們來學唱歌"
                            ],
                            "function": "1"
                        },
                        "en_US": {
                            "crossApp": 0,
                            "intention": "110_Patten0098846f15_crossIntent",
                            "file": "cb0ecf10-eca0-11e4-8d52-15f3e859670c.bnf",
                            "ontology": "ks.owl",
                            "act": "",
                            "iri": "http://www.asus.com/irp_sample/kidsong",
                            "sentenceText": [
                                "我們來學唱歌"
                            ],
                            "function": "1"
                        }
                    },
                    "name": "我們來學唱歌",
                    "type": "bnf"
                }
            ],
            "flow": [
                {
                    "id": "47f0e800-eca0-11e4-8060-cd1accb59bb8",
                    "units": [
                        {
                            "id": "44af4ef0-eca0-11e4-8a7f-6f4033011596",
                            "input": "value",
                            "posy": 274,
                            "description": "",
                            "posx": 525,
                            "value": "1",
                            "setToDB": false,
                            "label": "Set Belief",
                            "goto": [
                                {
                                    "id": "372b8b00-eca0-11e4-ffbf-07e25c015b48",
                                    "perform": "enter",
                                    "output": "44afc420-eca0-11e4-8a7f-6f4033011596"
                                }
                            ],
                            "setBelief": "",
                            "type": "set_belief",
                            "output": [
                                {
                                    "id": "44afc420-eca0-11e4-8a7f-6f4033011596",
                                    "dataType": "string",
                                    "label": "string",
                                    "type": "defaultOutputType"
                                }
                            ],
                            "key": "level"
                        },
                        {
                            "posy": 129,
                            "posx": 874,
                            "entity": "",
                            "relation": "hasLevel",
                            "goto": [
                                {
                                    "id": "4c7286d0-eca0-11e4-a616-b7c8383732fb",
                                    "perform": "enter",
                                    "output": "7f206601-eca0-11e4-8a7f-6f4033011596"
                                }
                            ],
                            "label": "Access Ontology",
                            "type": "access_ontology",
                            "lang": "zh_TW",
                            "function": "3",
                            "id": "7f206600-eca0-11e4-8a7f-6f4033011596",
                            "operation": "and",
                            "input": "text",
                            "description": "亂數取得取第一關的資料",
                            "shuffle": "true",
                            "overwrite": "false",
                            "operation2": {
                                "entity": "",
                                "value": "",
                                "relation": "",
                                "function": "1"
                            },
                            "value": "${level}",
                            "operation1": {
                                "entity": "",
                                "value": "${level}",
                                "relation": "hasLevel",
                                "function": "3"
                            },
                            "setBelief": "songName",
                            "output": [
                                {
                                    "id": "7f206601-eca0-11e4-8a7f-6f4033011596",
                                    "dataType": "string",
                                    "label": "string",
                                    "type": "defaultOutputType"
                                }
                            ],
                            "getFirst": "true"
                        },
                        {
                            "text": "",
                            "measure": 1,
                            "posy": 198,
                            "posx": 1245,
                            "tempo": 120,
                            "goto": [
                                {
                                    "id": "4467e8e0-eca0-11e4-ffbf-07e25c015b48",
                                    "perform": "enter",
                                    "output": "e13921d0-eca0-11e4-ffbf-07e25c015b48"
                                }
                            ],
                            "label": "Text To Sing",
                            "type": "text_to_sing",
                            "mode": "advanced",
                            "id": "1964e420-eca0-11e4-8a7f-6f4033011596",
                            "num": "4",
                            "trans": 0,
                            "input": "text",
                            "source": "${songXml}",
                            "description": "",
                            "setBelief": "",
                            "output": [
                                {
                                    "id": "e13921d0-eca0-11e4-ffbf-07e25c015b48",
                                    "dataType": "string",
                                    "label": "string",
                                    "type": "defaultOutputType"
                                }
                            ],
                            "solfa": "1"
                        },
                        {
                            "id": "9ca97990-eca0-11e4-8a7f-6f4033011596",
                            "input": null,
                            "description": "",
                            "posy": 214,
                            "posx": 1777,
                            "utterance": {
                                "crossApp": "0",
                                "sentenceList": [
                                    "再唱一次"
                                ],
                                "result": "9a702ed0-eca0-11e4-8276-3dd5301cfa5f.bnf",
                                "rdf": "ks.owl",
                                "sentenceType": "1",
                                "act": "",
                                "iri": "http://www.asus.com/irp_sample/kidsong",
                                "sentenceText": "",
                                "freqSentence": "0",
                                "function": "1"
                            },
                            "sentences": [
                                "110_Patten0094bb7666",
                                "110_Patten0094c0fc4e",
                                "110_Patten0094c21a71",
                                "110_Patten0094ccf9d2"
                            ],
                            "setBelief": "q_answer",
                            "goto": [
                                {
                                    "id": "baefdf20-eca0-11e4-8a7f-6f4033011596",
                                    "perform": "enter",
                                    "output": "9caa63f0-eca0-11e4-8a7f-6f4033011596"
                                },
                                {
                                    "id": "35fcf940-eca0-11e4-ffbf-07e25c015b48",
                                    "perform": "enter",
                                    "output": "311c31c1-eca0-11e4-ffbf-07e25c015b48"
                                }
                            ],
                            "label": "CSR",
                            "output": [
                                {
                                    "id": "8821cf50-3ac0-11e5-dbb1-15c5f26273a5",
                                    "type": "defaultOutputType",
                                    "dataType": "string",
                                    "label": "string"
                                },
                                {
                                    "id": "9caa63f0-eca0-11e4-8a7f-6f4033011596",
                                    "value": "110_Patten0094bb7666",
                                    "label": "110_Patten0094bb7666",
                                    "type": "conditionalOutputs"
                                },
                                {
                                    "id": "311c31c1-eca0-11e4-ffbf-07e25c015b48",
                                    "value": "110_Patten0094c0fc4e",
                                    "label": "110_Patten0094c0fc4e",
                                    "type": "conditionalOutputs"
                                },
                                {
                                    "id": "8821f660-3ac0-11e5-dbb1-15c5f26273a5",
                                    "type": "conditionalOutputs",
                                    "value": "110_Patten0094c21a71",
                                    "label": "110_Patten0094c21a71"
                                },
                                {
                                    "id": "8821f661-3ac0-11e5-dbb1-15c5f26273a5",
                                    "type": "conditionalOutputs",
                                    "value": "110_Patten0094ccf9d2",
                                    "label": "110_Patten0094ccf9d2"
                                },
                                {
                                    "id": "8821f662-3ac0-11e5-dbb1-15c5f26273a5",
                                    "type": "conditionalDefaultOutput",
                                    "value": "time_out",
                                    "label": "time_out"
                                },
                                {
                                    "id": "8821f663-3ac0-11e5-dbb1-15c5f26273a5",
                                    "type": "conditionalDefaultOutput",
                                    "value": "output_default",
                                    "label": "output_default"
                                }
                            ],
                            "type": "csr",
                            "timeout": 10
                        },
                        {
                            "posy": 94,
                            "posx": 1965,
                            "label": "If Then Else",
                            "goto": [
                                {
                                    "id": "5ac0bc20-eca0-11e4-ffbf-07e25c015b48",
                                    "perform": "enter",
                                    "output": "baf00631-eca0-11e4-8a7f-6f4033011596"
                                },
                                {
                                    "id": "7ac09180-eca0-11e4-ffbf-07e25c015b48",
                                    "perform": "enter",
                                    "output": "baf00632-eca0-11e4-8a7f-6f4033011596"
                                }
                            ],
                            "type": "if",
                            "operator": "=",
                            "id": "baefdf20-eca0-11e4-8a7f-6f4033011596",
                            "input": "compareValue",
                            "compareValue": "${q_answer}",
                            "description": "",
                            "compareToValue": "${songName}",
                            "setBelief": "",
                            "output": [
                                {
                                    "id": "88224480-3ac0-11e5-dbb1-15c5f26273a5",
                                    "type": "defaultOutputType",
                                    "dataType": "boolean",
                                    "label": "boolean"
                                },
                                {
                                    "id": "baf00631-eca0-11e4-8a7f-6f4033011596",
                                    "value": "io_true",
                                    "label": "io_true",
                                    "type": "conditionalDefaultOutput"
                                },
                                {
                                    "id": "baf00632-eca0-11e4-8a7f-6f4033011596",
                                    "value": "io_false",
                                    "label": "io_false",
                                    "type": "conditionalDefaultOutput"
                                }
                            ]
                        },
                        {
                            "operandA": "${level}",
                            "operandB": "1",
                            "posy": 166,
                            "posx": 2325,
                            "label": "Math",
                            "goto": [
                                {
                                    "id": "73618390-eca0-11e4-ffbf-07e25c015b48",
                                    "perform": "enter",
                                    "output": "efc96c60-eca0-11e4-8a7f-6f4033011596"
                                }
                            ],
                            "type": "math",
                            "operator": "plus",
                            "id": "efc8a910-eca0-11e4-8a7f-6f4033011596",
                            "input": "operandA",
                            "description": "",
                            "setBelief": "level",
                            "output": [
                                {
                                    "id": "efc96c60-eca0-11e4-8a7f-6f4033011596",
                                    "dataType": "string",
                                    "label": "string",
                                    "type": "defaultOutputType"
                                }
                            ]
                        },
                        {
                            "posy": 198,
                            "posx": 1065,
                            "entity": "${songName}",
                            "relation": "hasXml",
                            "goto": [
                                {
                                    "id": "1964e420-eca0-11e4-8a7f-6f4033011596",
                                    "perform": "enter",
                                    "output": "4c72ade0-eca0-11e4-a616-b7c8383732fb"
                                }
                            ],
                            "label": "Access Ontology",
                            "type": "access_ontology",
                            "lang": "zh_TW",
                            "function": "4",
                            "id": "4c7286d0-eca0-11e4-a616-b7c8383732fb",
                            "operation": "and",
                            "input": "text",
                            "description": "亂數取得取第一關的資料",
                            "shuffle": "false",
                            "overwrite": "false",
                            "operation2": {
                                "entity": "",
                                "value": "",
                                "relation": "",
                                "function": "1"
                            },
                            "value": "",
                            "operation1": {
                                "entity": "${songName}",
                                "value": "",
                                "relation": "hasXml",
                                "function": "4"
                            },
                            "setBelief": "songXml",
                            "output": [
                                {
                                    "id": "4c72ade0-eca0-11e4-a616-b7c8383732fb",
                                    "dataType": "string",
                                    "label": "string",
                                    "type": "defaultOutputType"
                                }
                            ],
                            "getFirst": "true"
                        },
                        {
                            "id": "372b8b00-eca0-11e4-ffbf-07e25c015b48",
                            "text": "歡迎來玩遊戲，準備好就開始吧",
                            "input": "text",
                            "description": "",
                            "posy": 264,
                            "posx": 736,
                            "setBelief": "",
                            "goto": [
                                {
                                    "id": "7f206600-eca0-11e4-8a7f-6f4033011596",
                                    "perform": "enter",
                                    "output": "372c0030-eca0-11e4-ffbf-07e25c015b48"
                                }
                            ],
                            "label": "TTS",
                            "output": [
                                {
                                    "id": "372c0030-eca0-11e4-ffbf-07e25c015b48",
                                    "dataType": "string",
                                    "label": "string",
                                    "type": "defaultOutputType"
                                }
                            ],
                            "type": "tts"
                        },
                        {
                            "id": "4467e8e0-eca0-11e4-ffbf-07e25c015b48",
                            "text": "唱完了，現在讓我來考考你這是什麼歌",
                            "input": "text",
                            "description": "",
                            "posy": 198,
                            "posx": 1425,
                            "setBelief": "",
                            "goto": [
                                {
                                    "id": "4ca2d7e0-eca0-11e4-ffbf-07e25c015b48",
                                    "perform": "enter",
                                    "output": "44680ff0-eca0-11e4-ffbf-07e25c015b48"
                                }
                            ],
                            "label": "TTS",
                            "output": [
                                {
                                    "id": "44680ff0-eca0-11e4-ffbf-07e25c015b48",
                                    "dataType": "string",
                                    "label": "string",
                                    "type": "defaultOutputType"
                                }
                            ],
                            "type": "tts"
                        },
                        {
                            "id": "4ca2d7e0-eca0-11e4-ffbf-07e25c015b48",
                            "text": "請問這是 1 蝴蝶 2 春神來了 3 造飛機 4 茉莉花，哪一首歌",
                            "input": "text",
                            "description": "",
                            "posy": 198,
                            "posx": 1605,
                            "setBelief": "",
                            "goto": [
                                {
                                    "id": "9ca97990-eca0-11e4-8a7f-6f4033011596",
                                    "perform": "enter",
                                    "output": "4ca2fef0-eca0-11e4-ffbf-07e25c015b48"
                                }
                            ],
                            "label": "TTS",
                            "output": [
                                {
                                    "id": "4ca2fef0-eca0-11e4-ffbf-07e25c015b48",
                                    "dataType": "string",
                                    "label": "string",
                                    "type": "defaultOutputType"
                                }
                            ],
                            "type": "tts"
                        },
                        {
                            "id": "5ac0bc20-eca0-11e4-ffbf-07e25c015b48",
                            "text": "答對了~",
                            "input": "text",
                            "description": "",
                            "posy": 94,
                            "posx": 2145,
                            "setBelief": "",
                            "goto": [
                                {
                                    "id": "efc8a910-eca0-11e4-8a7f-6f4033011596",
                                    "perform": "enter",
                                    "output": "5ac0bc21-eca0-11e4-ffbf-07e25c015b48"
                                }
                            ],
                            "label": "TTS",
                            "output": [
                                {
                                    "id": "5ac0bc21-eca0-11e4-ffbf-07e25c015b48",
                                    "dataType": "string",
                                    "label": "string",
                                    "type": "defaultOutputType"
                                }
                            ],
                            "type": "tts"
                        },
                        {
                            "id": "73618390-eca0-11e4-ffbf-07e25c015b48",
                            "text": "開始下一關",
                            "input": "text",
                            "description": "",
                            "posy": 220,
                            "posx": 2505,
                            "setBelief": "",
                            "goto": [
                                {
                                    "id": "372b8b00-eca0-11e4-ffbf-07e25c015b48",
                                    "perform": "enter",
                                    "output": "0535f8f0-eca0-11e4-ffbf-07e25c015b48"
                                }
                            ],
                            "label": "TTS",
                            "output": [
                                {
                                    "id": "0535f8f0-eca0-11e4-ffbf-07e25c015b48",
                                    "dataType": "string",
                                    "label": "string",
                                    "type": "defaultOutputType"
                                }
                            ],
                            "type": "tts"
                        },
                        {
                            "id": "7ac09180-eca0-11e4-ffbf-07e25c015b48",
                            "text": "答錯了~ 再猜一次",
                            "input": "text",
                            "description": "",
                            "posy": 193,
                            "posx": 2145,
                            "setBelief": "",
                            "goto": [
                                {
                                    "id": "9ca97990-eca0-11e4-8a7f-6f4033011596",
                                    "perform": "enter",
                                    "output": "7ac09181-eca0-11e4-ffbf-07e25c015b48"
                                }
                            ],
                            "label": "TTS",
                            "output": [
                                {
                                    "id": "7ac09181-eca0-11e4-ffbf-07e25c015b48",
                                    "dataType": "string",
                                    "label": "string",
                                    "type": "defaultOutputType"
                                }
                            ],
                            "type": "tts"
                        },
                        {
                            "id": "35fcf940-eca0-11e4-ffbf-07e25c015b48",
                            "input": "text",
                            "text": "公布答案囉,是${songName}",
                            "posy": 292,
                            "description": "",
                            "posx": 2145,
                            "label": "TTS",
                            "goto": [
                                {
                                    "id": "efc8a910-eca0-11e4-8a7f-6f4033011596",
                                    "perform": "enter",
                                    "output": "35fd2050-eca0-11e4-ffbf-07e25c015b48"
                                }
                            ],
                            "setBelief": "",
                            "type": "tts",
                            "output": [
                                {
                                    "id": "35fd2050-eca0-11e4-ffbf-07e25c015b48",
                                    "dataType": "string",
                                    "label": "string",
                                    "type": "defaultOutputType"
                                }
                            ]
                        },
                        {
                            "id": "15ab2060-eca0-11e4-ffbf-07e25c015b48",
                            "source": "",
                            "posy": 274,
                            "description": "",
                            "posx": 165,
                            "global": false,
                            "scene": "47f0e800-eca0-11e4-8060-cd1accb59bb8",
                            "label": "Event",
                            "goto": [
                                {
                                    "id": "1859ecb0-eca0-11e4-ffbf-07e25c015b48",
                                    "perform": "enter",
                                    "output": "15ab2061-eca0-11e4-ffbf-07e25c015b48"
                                }
                            ],
                            "eventType": "scene_begin",
                            "type": "event",
                            "output": [
                                {
                                    "id": "15ab2061-eca0-11e4-ffbf-07e25c015b48",
                                    "dataType": "string",
                                    "label": "string",
                                    "type": "defaultOutputType"
                                }
                            ]
                        },
                        {
                            "id": "1859ecb0-eca0-11e4-ffbf-07e25c015b48",
                            "input": null,
                            "description": "",
                            "posy": 274,
                            "posx": 345,
                            "utterance": {
                                "crossApp": "0",
                                "sentenceList": [
                                    "我想唱童年"
                                ],
                                "result": "",
                                "rdf": "ASUS_Product_CN_0918.rdf",
                                "sentenceType": "1",
                                "act": "",
                                "iri": "file:/C:/Users/WeiCheng_Liu/Desktop/Q2_Ontology/CSUMO.owl",
                                "sentenceText": "",
                                "freqSentence": "0",
                                "function": "0"
                            },
                            "sentences": [
                                "110_Patten0098846f15_crossIntent"
                            ],
                            "setBelief": "",
                            "goto": [
                                {
                                    "id": "44af4ef0-eca0-11e4-8a7f-6f4033011596",
                                    "perform": "enter",
                                    "output": "185a13c1-eca0-11e4-ffbf-07e25c015b48"
                                }
                            ],
                            "label": "CSR",
                            "output": [
                                {
                                    "id": "88246760-3ac0-11e5-dbb1-15c5f26273a5",
                                    "type": "defaultOutputType",
                                    "dataType": "string",
                                    "label": "string"
                                },
                                {
                                    "id": "185a13c1-eca0-11e4-ffbf-07e25c015b48",
                                    "value": "110_Patten0098846f15_crossIntent",
                                    "label": "110_Patten0098846f15_crossIntent",
                                    "type": "conditionalOutputs"
                                },
                                {
                                    "id": "88246761-3ac0-11e5-dbb1-15c5f26273a5",
                                    "type": "conditionalDefaultOutput",
                                    "value": "time_out",
                                    "label": "time_out"
                                },
                                {
                                    "id": "88246762-3ac0-11e5-dbb1-15c5f26273a5",
                                    "type": "conditionalDefaultOutput",
                                    "value": "output_default",
                                    "label": "output_default"
                                }
                            ],
                            "type": "csr",
                            "timeout": 10
                        }
                    ]
                },
                {
                    "id": "2ad081e0-eca0-11e4-8a7f-6f4033011596",
                    "units": [
                        {
                            "id": "312f84f0-eca0-11e4-8a7f-6f4033011596",
                            "source": "",
                            "posy": 232,
                            "description": "",
                            "posx": 211,
                            "global": false,
                            "scene": "47f0e800-eca0-11e4-8060-cd1accb59bb8",
                            "label": "Event",
                            "goto": [
                                {
                                    "id": "5d35f030-eca0-11e4-8276-3dd5301cfa5f",
                                    "perform": "enter",
                                    "output": "312fd310-eca0-11e4-8a7f-6f4033011596"
                                }
                            ],
                            "eventType": "scene_begin",
                            "type": "event",
                            "output": [
                                {
                                    "id": "312fd310-eca0-11e4-8a7f-6f4033011596",
                                    "dataType": "string",
                                    "label": "string",
                                    "type": "defaultOutputType"
                                }
                            ]
                        },
                        {
                            "id": "4556ab20-eca0-11e4-8a7f-6f4033011596",
                            "posy": 229,
                            "posx": 591,
                            "label": "Exit App",
                            "goto": [],
                            "type": "exit_app"
                        },
                        {
                            "playUntilVideoEnd": false,
                            "posy": 250,
                            "posx": 401,
                            "label": "Talking Face",
                            "normalFace": "b3257950-eca0-11e4-ba88-231f6119bcb6",
                            "goto": [
                                {
                                    "id": "4556ab20-eca0-11e4-8a7f-6f4033011596",
                                    "perform": "enter",
                                    "output": "785c5110-eca0-11e4-8276-3dd5301cfa5f"
                                }
                            ],
                            "type": "talking_face",
                            "id": "5d35f030-eca0-11e4-8276-3dd5301cfa5f",
                            "input": "text",
                            "tts": "歡迎下次再來玩",
                            "description": "",
                            "target": "layout_4000faa0-eca0-11e4-8276-3dd5301cfa5f",
                            "talkingFace": "b326d8e0-eca0-11e4-ba88-231f6119bcb6",
                            "setBelief": "",
                            "output": [
                                {
                                    "id": "785c5110-eca0-11e4-8276-3dd5301cfa5f",
                                    "dataType": "string",
                                    "label": "string",
                                    "type": "defaultOutputType"
                                }
                            ]
                        }
                    ]
                }
            ],
            "dialog": [
                {
                    "id": "47f0e800-eca0-11e4-8060-cd1accb59bb8",
                    "units": []
                }
            ]
        },
        "env": {
            "orientation": "landscape",
            "height": 450,
            "initScene": "47f0e800-eca0-11e4-8060-cd1accb59bb8",
            "width": 800,
            "g11nDefault": "en_US",
            "version": "0.0.1",
            "productId": "110",
            "builderVer": "v0.7.15.19"
        },
        "pref": {},
        "info": {
            "cover": "",
            "description": "2015.05.28 ",
            "editedTime": "2015-09-03 14:49"
        }
    }
}